labels_in,name_in,alias_in,memo_in,type,alias,name_out,gitlab_out,memo,evidence
Disease,COVID-19,,,SYMPTOM,症状,発熱,,最もよくある症状,
Disease,COVID-19,,,SYMPTOM,症状,咳,,最もよくある症状,
Disease,COVID-19,,,SYMPTOM,症状,倦怠感,,最もよくある症状,
Disease,COVID-19,,,SYMPTOM,症状,味覚障害,,最もよくある症状,
Disease,COVID-19,,,SYMPTOM,症状,嗅覚障害,,最もよくある症状,
Disease,COVID-19,,,SYMPTOM,症状,喉の痛み,,時折みられる症状,
Disease,COVID-19,,,SYMPTOM,症状,頭痛,,時折みられる症状,
Disease,COVID-19,,,SYMPTOM,症状,痛み,,時折みられる症状,
Disease,COVID-19,,,SYMPTOM,症状,下痢,,時折みられる症状,
Disease,COVID-19,,,SYMPTOM,症状,皮膚の発疹、または手足の指の変色,,時折みられる症状,
Disease,COVID-19,,,SYMPTOM,症状,眼の充血または炎症,,時折みられる症状,
Disease,COVID-19,,,SYMPTOM,症状,息苦しさ,,重篤な症状,
Disease,COVID-19,,,SYMPTOM,症状,発話障害、運動障害、錯乱,,重篤な症状,
Disease,COVID-19,,,SYMPTOM,症状,胸の痛み,,重篤な症状,
Disease,COVID-19,,,SEQUELAE,後遺症,倦怠感,,,
Disease,COVID-19,,,SEQUELAE,後遺症,疲労感,,,
Disease,COVID-19,,,SEQUELAE,後遺症,息苦しさ,,,
Disease,COVID-19,,,SEQUELAE,後遺症,睡眠障害,,,
Disease,COVID-19,,,SEQUELAE,後遺症,思考力・集中力の低下,,,
Disease,COVID-19,,,SEQUELAE,後遺症,脱毛,,,
Disease,COVID-19,,,SEQUELAE,後遺症,味覚障害,,,
Disease,COVID-19,,,SEQUELAE,後遺症,嗅覚障害,,,
Disease,COVID-19,,,SEQUELAE,後遺症,頭痛,,,
