labels_in,name_in,alias_in,memo_in,type,alias,name_out,gitlab_out,memo,evidence
Participant|Organization,ビル&メリンダ・ゲイツ財団,Bill & Melinda Gates Foundation; B&MGF,,,,,,,
Participant|Organization,エコヘルス・アライアンス,EcoHealth Alliance,,,,,,,
Participant|Corporation,グーグル,Google,,,,,,,
Participant|Corporation,ファイザー社,Pfizer Inc.,,,,,,,
Participant|Corporation,モデルナ社,"Moderna, Inc.",,,,,,,
Participant|Corporation,アストラゼネカ社,AstraZeneca plc,,,,,,,
Participant|Lab,中国科学院武漢ウイルス研究所,中国科学院武汉病毒研究所、Wuhan Institute of Virology; WIV,,,,,,,
Participant|Businessperson,ビル・ゲイツ,Bill Gates,,,,,,,
Participant|Businessperson,メリンダ・ゲイツ,Melinda Ann Gates,,,,,,,
Participant|Doctor,アンソニー・ファウチ,Anthony Stephen Fauci,,,,,,,
Participant|Businessperson,ピーター・ダザック,Peter Daszak,エコヘルス・アライアンス会長,,,,,,
Participant|Businessperson,アルバート・ブーラ,Albert Bourla,ファイザーCEO,,,,,,
Participant|Businessperson,ステファン・バンセル,Stéphane Bancel,モデルナCEO,,,,,,
Participant|Researcher,石正麗,Shi Zhengli,,,,,,,
Participant|Government,CDC,アメリカ疾病予防管理センター,,,,,,,
Participant|Government,FDA,アメリカ食品医薬品局,,,,,,,
Participant|Organization,WHO,世界保健機関,,,,,,,
Participant|Government,厚生労働省,,,,,,,,
Participant|Politician,河野 太郎,,,,,,,,
Participant|Media,こびナビ,,,,,,,,
Participant|Businessperson,吉村 健佑,,,,,,,,
Participant|Businessperson,峰 宗太郎,,,,,,,,
Participant|Businessperson,木下 喬弘,,,,,,,,
Vaxxer|Entrepreneur,ひろゆき,西村博之,,,,,,,
Vaxxer|Entrepreneur,ホリエモン,堀江貴文,,,,,,,
Event,イベント201,Event 201,,,,,,,
Patent,ファイザーの特許,,,,,,,,
Patent,マイクロソフトの特許,,,,,,,,
Patent,酸化グラフェンの特許,,,,,,,,
AntiVaxxer|Institute,ソーク研究所,Salk Institute for Biological Studies,,,,,,,
AntiVaxxer|Researcher,マイケル・イードン,Michael Yeadon,,,,,,,
AntiVaxxer|Researcher,ロバート・W・マローン,Robert Wallace Malone,,,,,,,
AntiVaxxer|Researcher,バイラム・ブライドル,Byram W. Bridle,,,,,,,
AntiVaxxer|Researcher,ヴァンデン・ボッシュ,Geert Vanden Bossche,,,,,,,
AntiVaxxer|Researcher,リュック・モンタニエ,Luc Antoine Montagnier,,,,,,,
AntiVaxxer|Researcher,リチャード・フレミング,Richard Fleming,,,,,,,
AntiVaxxer|Researcher,苫米地 英人,,,,,,,,
AntiVaxxer|Politician,黒川 敦彦,,,,,,,,
AntiVaxxer|Researcher,武田 邦彦,,,,,,,,
AntiVaxxer|Lawyer,木原功仁哉,,,,,,,,
AntiVaxxer|Professor,小島 勢二,,名古屋大学名誉教授,,,,,,
AntiVaxxer,小林よしのり,,,,,,,,
AntiVaxxer,倉田真由美,,,,,,,,
Victim,西川 史子,,,,,,,,
Victim,木下 雄介,,,,,,,,
Victim,原田 曜平の父親,,,,,,,,
Victim,大江 千里,,,,,,,,
Victim,宮坂 祐,,,,,,,,
Victim,コリン・ルーサー・パウエル,,,,,,,,
Victim,前田 浩,,,,,,,,
Victim,麻希くるみ,,,,,,,,
Victim,黒崎 真音,,,,,,,,
Victim,高田 潤,,,,,,,,
Victim,風間 るみ,,,,,,,,
Victim,シルバーケア藤,,,,,,,,
Victim,「ヒロシの時事ニュースチャンネル」のヒロシ,,,,,,,,
Victim,平田 良介,,,,,,,,
Victim,大久保 博元,,,,,,,,
Victim,ハンク・アーロン,,,,,,,,
Victim,ビクター・ドミネロ,,,,,,,,
Victim,エリック・クラプトン,,,,,,,,
Victim,劇団ひとり,,,,,,,,
Victim,浜崎 あゆみ,,,,,,,,
,,,,,,,,,
,,,,,,,,,
,,,,,,,,,
,,,,,,,,,
Variant,都内流行株,B.1.1,,,,,,,
Variant,ガンマ株,P.1,,,,,,,
Variant,S:E484K変異株,R.1,,,,,,,
Variant,アルファ株,B1.1.7,,,,,,,
Variant,デルタ株,B.1.617.2,,,,,,,
Variant,カッパ株,B.1.617.1,,,,,,,
Variant,ベータ株,B.1.351,,,,,,,
Variant,B1.346,,,,,,,,
Variant,B.12,,,,,,,,
Variant,A株,,,,,,,,
Variant,武漢株,B,,,,,,,
Variant,ミュー株,,,,,,,,
Disease,エイズ,AIDS,,,,,,,
Chemical,ALC-0159,"2-［（ポリエチレングリコール）-2000］-N,N-ジテトラデシルアセトアミド 0.4mg",,,役割,PEG脂質,,,
Chemical,PEG2000-DMG,"1,2-ジミリストイル-rac-グリセロ-3-メチルポリオキシエチレン",,,役割,PEG脂質,,,
Chemical,ALC-0315,"［（4-ヒドロキシブチル）アザンジイル］ビス（ヘキサン-6,1-ジイル）ビス（2-ヘキシルデカン酸エステル） 3.23mg",,,,,,,
Chemical,DSPC,"1,2-ジステアロイル-sn-グリセロ-3-ホスホコリン 0.7mg",,,,,,,
Chemical,SM-102,ヘプタデカン-9-イル 8-((2-ヒドロキシエチル)(6-オキソ-6-(ウンデシルオキシ)ヘキシル)アミノ) オクタン酸エステル,,,,,,,